<?xml version="1.0" encoding="utf-8"?>
<!-- Generator: Adobe Illustrator 16.0.3, SVG Export Plug-In . SVG Version: 6.00 Build 0)  -->
<!DOCTYPE svg PUBLIC "-//W3C//DTD SVG 1.1//EN" "http://www.w3.org/Graphics/SVG/1.1/DTD/svg11.dtd">
<svg version="1.1" id="Warstwa_1" xmlns="http://www.w3.org/2000/svg" xmlns:xlink="http://www.w3.org/1999/xlink" x="0px" y="0px"
	 width="300.115px" height="50px" viewBox="61.36 34.568 300.115 50" enable-background="new 61.36 34.568 300.115 50"
	 xml:space="preserve">
<g>
	<path fill="#222221" d="M195.379,81.514V72.09l-0.035,0.019l-1.354,3.036c-0.364,0.746-1.787,3.784-2.134,4.529h-1.024
		l-2.152-4.616c-0.295-0.624-1.058-2.343-1.354-2.968l-0.035,0.019v9.404h-1.163V69.437h1.181c0.434,0.937,2.169,4.72,2.621,5.657
		c0.277,0.572,1.145,2.567,1.423,3.142h0.035l1.405-3.124c0.451-0.938,2.169-4.737,2.621-5.675h1.145v12.077H195.379L195.379,81.514
		z M210.766,81.514l-2.447-5.449h-3.106v5.449h-1.181V69.437h4.806c1.979,0,3.471,1.266,3.471,3.21c0,1.702-1.111,2.934-2.776,3.314
		l2.568,5.553H210.766L210.766,81.514z M208.596,70.46h-3.383v4.563h3.314c1.458,0,2.567-0.833,2.567-2.378
		C211.094,71.119,209.968,70.46,208.596,70.46z M227.246,81.514l-0.988-2.863h-5.415c-0.347,0.954-0.677,1.926-1.006,2.863h-1.233
		c1.459-4.025,2.934-8.052,4.407-12.077h1.079l4.424,12.077h-0.434c-0.398,0.502-0.607,1.006-0.607,1.405
		c0,0.556,0.348,0.833,0.885,0.833c0.277,0,0.591-0.104,0.989-0.294c0.087,0.242,0.19,0.486,0.295,0.711
		c-0.399,0.207-0.938,0.399-1.493,0.399c-0.953,0-1.578-0.678-1.578-1.459C226.571,82.66,226.76,82.104,227.246,81.514z
		 M223.516,70.947c-0.189,0.606-0.607,1.839-1.059,3.087c-0.502,1.389-0.988,2.813-1.283,3.61h4.737l-1.354-3.905l-0.989-2.792
		H223.516L223.516,70.947z M241.784,77.436v-1.162h-2.637v-1.06h3.817v2.153c0,2.428-1.667,4.269-4.234,4.269
		c-2.898,0-4.234-2.065-4.234-4.442v-3.453c0-2.344,1.389-4.391,4.234-4.391c1.874,0,3.229,0.953,3.835,2.411
		c-0.034,0.035-1.04,0.469-1.075,0.504c-0.451-1.059-1.424-1.805-2.742-1.805c-2.082,0-3.088,1.596-3.088,3.331v3.418
		c0,1.753,1.007,3.386,3.088,3.386C240.554,80.595,241.784,79.085,241.784,77.436z M258.28,73.741v3.453
		c0,2.707-1.633,4.426-4.218,4.426c-2.881,0-4.234-2.049-4.234-4.426v-3.453c0-2.344,1.388-4.391,4.234-4.391
		C256.96,69.35,258.28,71.207,258.28,73.741z M250.991,73.775v3.384c0,1.753,0.902,3.384,3.087,3.384
		c1.979,0,3.003-1.457,3.003-3.418v-3.35c0-1.856-0.989-3.314-3.003-3.314C251.927,70.46,250.991,72.04,250.991,73.775z
		 M274.98,81.514h-1.022l-2.76-9.995h-0.018c-0.19,0.728-0.572,2.168-0.989,3.661l-1.718,6.334h-1.059l-2.984-12.077h1.25
		c0.468,2.099,0.972,4.165,1.439,6.247l0.851,3.696c0.017,0,0.034,0.018,0.052,0.018l0.973-3.698
		c0.382-1.389,1.336-4.874,1.735-6.263h0.972c0.591,2.116,1.163,4.234,1.771,6.333l0.988,3.628h0.034
		c0.261-1.146,0.521-2.447,0.781-3.593l1.458-6.368h1.267L274.98,81.514z M292.618,73.741v3.453c0,2.707-1.632,4.426-4.218,4.426
		c-2.879,0-4.234-2.049-4.234-4.426v-3.453c0-2.344,1.389-4.391,4.234-4.391C291.299,69.35,292.618,71.207,292.618,73.741z
		 M285.331,73.775v3.384c0,1.753,0.901,3.384,3.087,3.384c1.979,0,3.004-1.457,3.004-3.418v-3.35c0-1.856-0.989-3.314-3.004-3.314
		C286.267,70.46,285.331,72.04,285.331,73.775z M131.924,39.323l-3.921,1.396c-0.295-1.291-1.37-2.284-3.063-2.284
		c-2.068,0-3.036,1.504-3.036,3.036v5.077c0,1.612,0.967,3.17,3.062,3.17c1.774,0,3.224-1.451,3.224-3.143v-0.134h-3.814v-3.438
		h7.898v3.734c0,3.922-3.278,6.823-7.308,6.823c-4.862,0-7.225-3.035-7.225-7.306v-4.405c0-3.869,2.362-7.28,7.225-7.28
		C128.512,34.568,131.011,36.476,131.924,39.323z M145.952,53.399l-1.397-3.814h-6.259l-1.396,3.814h-4.353l7.252-18.696h3.251
		l7.252,18.696H145.952z M142.566,43.944l-1.1-3.707h-0.109l-1.074,3.653l-0.698,2.203h3.68L142.566,43.944z M151.897,53.399V34.703
		h4.138v14.99h9.079v3.707H151.897z M181.948,53.453h-3.331l-1.745-6.07l-1.317-5.104h-0.08l-1.343,5.185l-1.719,5.99h-3.358
		l-4.996-18.696h4.324l1.316,5.533l1.182,5.319h0.081l1.424-5.319l1.612-5.533h3.01l1.61,5.506l1.425,5.345h0.135l1.128-5.319
		l1.316-5.533h4.325L181.948,53.453z M198.523,53.399l-1.396-3.814h-6.259l-1.397,3.814h-4.351l7.253-18.696h3.25l7.253,18.696
		H198.523z M195.14,43.944l-1.102-3.707h-0.107l-1.075,3.653l-0.7,2.203h3.681L195.14,43.944z M216.183,53.399l-4.755-6.876
		l-2.767-4.46l-0.053,0.026v11.31h-4.137V34.703h3.68l3.922,5.722l3.6,5.614l0.053-0.027V34.703h4.137v18.696H216.183z
		 M236.712,41.849v4.405c0,4.46-2.901,7.306-7.334,7.306c-4.862,0-7.225-3.411-7.225-7.306v-4.405c0-3.869,2.362-7.28,7.225-7.28
		C233.892,34.568,236.712,37.658,236.712,41.849z M226.317,41.473v5.077c0,1.612,0.967,3.143,3.036,3.143
		c1.987,0,3.143-1.37,3.143-3.143v-5.077c0-1.638-1.155-3.036-3.143-3.036C227.283,38.437,226.317,39.941,226.317,41.473z
		 M246.916,38.41V53.4h-4.11V38.41h-5.104v-3.707h14.317v3.707H246.916z M253.785,53.399V34.703h13.216v3.707h-9.08v3.787h7.737
		v3.573h-7.737v3.922h9.08v3.707L253.785,53.399L253.785,53.399z M282.466,48.859c-0.913,2.928-3.466,4.701-6.958,4.701
		c-4.862,0-7.227-3.035-7.227-7.306v-4.405c0-3.869,2.364-7.28,7.227-7.28c3.545,0,6.045,1.908,6.958,4.755l-3.923,1.396
		c-0.296-1.291-1.37-2.284-3.063-2.284c-2.067,0-3.035,1.504-3.035,3.036v5.077c0,1.612,0.968,3.144,3.035,3.144
		c1.666,0,2.767-0.967,3.063-2.337L282.466,48.859z M294.66,53.399v-7.628h-6.125v7.628h-4.137V34.703h4.137v7.494h6.125v-7.494
		h4.082v18.696H294.66z M313.399,53.399l-4.756-6.876l-2.768-4.46l-0.052,0.026v11.31h-4.138V34.703h3.68l3.923,5.722l3.6,5.614
		l0.054-0.027V34.703h4.137v18.696H313.399z M320.017,53.399V34.703h4.136v18.696H320.017z M338.428,53.399l-4.837-7.952
		l-2.444,2.74v5.212h-4.137V34.703h4.137v8.005l0.053,0.053l2.848-3.465l3.896-4.594h4.996l-6.555,7.575l6.932,11.121H338.428z
		 M357.122,53.399l-1.396-3.814h-6.259l-1.397,3.814h-4.353l7.253-18.696h3.251l7.253,18.696H357.122z M353.737,43.944l-1.101-3.707
		h-0.106l-1.075,3.653l-0.699,2.203h3.68L353.737,43.944z"/>
	<path fill="#009892" d="M70.732,44.029v28.115h37.485v3.123c0,3.45-2.797,6.247-6.247,6.247H67.608
		c-3.451,0-6.249-2.796-6.249-6.246V40.905c0-3.451,2.798-6.249,6.248-6.249l34.363,0c3.45,0,6.248,2.797,6.248,6.248v3.124
		L70.732,44.029L70.732,44.029z M108.218,59.646c0-3.449-2.797-6.247-6.248-6.247H84.789v9.373h14.057l9.372,9.37V59.646z
		 M117.59,62.771h243.657v-1.649H117.59V62.771z"/>
</g>
</svg>
